Age,Fever,Nausea,Headache,Diarrhea,Fatigue,Jaundice,Epigastricpain
58,2,2,2,1,2,2,1
58,2,1,1,1,2,1,1
55,2,1,2,2,2,2,2
58,2,2,2,2,1,1,1
54,1,1,1,2,2,1,1
59,2,1,1,1,1,1,2
56,1,1,1,2,2,2,2
59,2,1,1,1,1,2,2
58,1,2,2,2,1,1,1
54,2,1,1,2,1,1,2
59,1,2,1,1,1,1,2
56,1,2,2,2,1,2,2
57,1,1,1,2,2,1,1
60,1,2,2,1,2,1,2
56,2,1,2,2,1,2,2
60,2,1,2,1,2,1,1
53,1,2,1,2,2,1,2
56,1,2,1,1,1,2,2
53,1,1,1,1,2,1,2
57,1,2,2,1,2,2,1
55,2,2,1,1,2,1,1
53,2,2,1,2,2,2,2
52,2,2,2,1,2,1,1
55,2,2,2,1,2,1,1
52,1,2,2,1,2,1,2
55,2,1,1,1,2,1,1
56,1,1,1,2,1,2,1
58,1,1,2,1,2,2,1
52,2,1,2,2,2,1,1
51,2,2,1,2,2,1,2
60,1,1,1,1,1,2,2
55,1,2,1,1,2,2,1
59,2,1,2,1,2,1,2
60,1,1,2,1,1,1,2
55,2,1,1,1,1,2,1
53,2,1,1,2,2,2,1
54,2,1,2,2,1,1,2
59,1,1,2,2,2,2,2
53,1,2,1,1,1,1,2
58,2,2,2,2,2,2,2
56,1,1,2,1,2,1,2
51,1,2,1,1,1,1,1
55,1,2,1,2,2,1,1
55,2,2,2,2,1,2,1
57,2,2,1,2,2,1,2
52,2,1,1,2,2,1,2
55,1,1,1,1,2,2,1
57,1,2,1,1,2,1,1
53,2,1,1,2,1,2,2
58,1,2,1,2,2,2,1
58,2,2,1,1,2,2,1
52,2,2,1,2,1,2,2
53,2,2,2,2,2,2,1
57,2,2,1,1,1,2,2
58,1,1,2,2,2,2,1
58,2,2,2,1,1,2,2
56,1,2,2,2,1,1,2
58,1,1,1,2,1,2,2
51,2,1,2,2,2,2,1
56,1,1,2,1,2,1,1
59,1,1,2,2,2,1,2
51,2,2,2,1,1,1,2
58,1,2,2,2,2,2,1
52,2,1,1,2,2,2,2
54,1,2,1,2,2,1,1
52,1,2,2,2,2,1,1
56,1,1,1,2,1,2,1
57,1,1,2,2,2,1,2
52,1,1,2,1,1,1,1
57,2,1,1,1,1,1,2
51,2,1,2,2,2,1,1
54,2,1,1,2,2,1,2
54,1,2,1,2,1,1,1
56,1,2,1,1,1,2,1
51,2,1,2,1,2,1,1
53,2,2,1,2,2,1,2
59,2,2,1,1,2,1,1
58,2,1,2,2,1,1,1
51,1,1,2,1,2,2,1
57,2,1,2,1,2,1,1
57,2,2,2,2,1,2,2
60,1,2,1,2,2,2,1
52,2,2,1,1,2,1,2
58,2,1,1,2,2,2,2
58,2,1,2,1,2,1,2
60,1,1,2,2,2,2,1
60,1,1,2,2,1,1,2
52,1,2,1,2,1,2,2
53,2,2,2,2,2,1,2
52,2,1,1,2,1,1,1
58,2,2,2,1,1,1,1
59,1,2,1,2,1,1,1
56,1,2,1,2,2,2,1
60,1,1,1,2,1,1,2
53,2,2,2,2,2,2,1
54,2,1,2,2,2,2,2
59,2,2,2,2,2,2,1
51,1,2,1,2,1,2,1
53,2,1,1,2,2,2,1
54,1,1,2,2,2,2,1
51,2,2,1,1,2,1,1
58,2,2,1,2,1,2,2
57,2,1,1,1,1,2,1
53,1,1,2,2,1,1,2
59,2,2,2,2,2,2,2
60,2,1,1,2,2,1,1
57,1,2,1,2,1,1,2
58,2,2,1,2,2,1,1
54,2,2,2,1,1,1,2
59,1,2,1,1,2,2,2
60,1,1,2,2,1,1,1
54,1,2,2,2,2,1,1
51,2,2,2,2,2,2,1
51,1,1,1,1,1,1,2
56,2,2,2,2,2,1,2
54,1,2,1,1,1,1,2
55,2,1,2,2,1,1,2
54,1,2,2,1,2,1,1
56,1,1,2,1,1,1,2
57,1,1,2,2,1,1,2
60,1,1,2,1,1,1,2
51,2,1,1,2,2,1,2
54,1,1,1,1,2,2,1
58,1,1,2,1,2,1,2
59,2,1,2,2,1,2,1
54,1,2,2,1,2,2,2
55,1,1,2,2,2,2,1
53,2,1,1,1,1,1,2
54,2,2,1,1,1,1,1
53,2,2,1,2,1,1,2
57,2,2,2,1,2,1,1
53,2,2,1,2,1,1,1
53,2,2,2,2,1,2,2
59,1,1,1,1,2,1,2
53,1,2,2,1,2,1,1
55,2,1,2,2,2,1,2
55,1,2,1,2,2,2,2
52,2,2,2,2,1,1,1
54,1,2,1,1,1,1,1
57,1,1,2,2,1,1,1
59,2,2,2,1,1,2,2
57,1,2,2,1,1,2,2
51,1,2,2,1,2,2,1
57,2,2,1,2,1,1,1
51,1,2,1,2,1,2,2
51,2,2,1,2,1,2,2
59,1,1,2,1,2,2,1
52,1,1,2,2,1,1,2
55,2,1,1,1,2,1,1
59,1,1,1,1,1,1,2
56,2,1,1,1,1,1,2
56,1,2,1,1,2,2,1
59,2,1,2,1,1,1,2
53,1,1,2,1,1,1,1
51,2,2,2,2,1,1,2
53,1,2,1,2,1,1,1
60,1,2,1,1,2,2,1
56,2,2,2,1,1,2,1
54,1,2,1,2,2,2,1
51,2,2,2,2,1,2,2
56,1,2,2,1,2,2,2
55,2,2,2,2,1,1,1
56,1,2,1,2,2,2,1
60,1,1,2,2,2,1,2
57,1,2,1,2,1,1,1
